<?xml version="1.0" standalone="no"?>
<!DOCTYPE svg PUBLIC "-//W3C//DTD SVG 1.1//EN" "http://www.w3.org/Graphics/SVG/1.1/DTD/svg11.dtd">
<svg xmlns="http://www.w3.org/2000/svg">
<metadata>Copyright (C) 2014 by original authors @ fontello.com</metadata>
<defs>
<font id="svetla-icons" horiz-adv-x="1000" >
<font-face font-family="svetla-icons" font-weight="400" font-stretch="normal" units-per-em="1000" ascent="850" descent="-150" />
<missing-glyph horiz-adv-x="1000" />
<glyph glyph-name="globe" unicode="&#xe800;" d="m429 779q116 0 215-58t156-156 57-215-57-215-156-156-215-58-216 58-155 156-58 215 58 215 155 156 216 58z m152-291q-1-1-5-5t-7-6q1 0 2 3t3 6 2 4q3 4 12 8 8 4 29 7 19 5 29-6-1 1 5 7t8 7q2 1 8 2t9 5l1 12q-7-1-10 4t-3 12q0-2-4-5 0 4-2 5t-7-1-5-1q-5 2-8 5t-5 9-2 8q-1 3-5 6t-5 6q-1 1-2 3t-2 4-2 3-3 1-4-3-4-5-2-3q-2 1-4 1t-2-1-3-2-3-2q-1-1-4-1t-5-1q8 3-1 6-5 2-9 1 5 3 5 7t-5 8h3q-1 2-5 5t-10 4-7 4q-5 3-19 5t-18 0q-3-3-3-5t2-8 2-7q1-4-3-7t-3-7q0-4 7-9t6-12q-2-4-9-9t-9-6q-3-5-1-11t6-9q1-1 1-2t-2-3-3-2-4-2l-1-1q-7-3-12 3t-7 15q-4 14-9 17-13 4-17-1-2 7-22 15-14 5-33 2 4 0 0 8-4 9-10 7 1 3 2 10t0 7q2 7 7 13 1 1 4 5t5 7 1 4q19-3 28 6 2 2 6 9t6 10q5 3 8 3t8-3 8-3q8-1 8 6t-4 11q7 0 2 10-3 4-5 5-6 2-15-3-4-2 2-4-1 0-6-6t-9-10-9 3q0 0-3 7t-5 8q-5 0-9-9 1 5-6 9t-14 4q11 7-4 15-4 3-12 3t-11-2q-2-4-3-7t3-4 6-3 6-2 5-2q8-6 5-8-1 0-5-2t-6-2-4-3q-2-2 0-7t-1-8q-3 3-5 10t-4 9q4-5-14-4l-5 1q-3 0-9-1t-12-1-7 5q-3 4 0 11 0 2 2 1-2 2-6 5t-6 5q-25-8-52-23 3 0 6 1 3 1 8 3t5 4q19 7 24 3l3 3q7-9 11-14-4 3-17 1-11-4-12-7 4-7 2-10-2 2-6 6t-8 6-8 3q-9 0-13-1-81-45-131-124 4-4 7-4 2-1 3-5t1-6 6 1q5-4 2-10 1 0 25-15 10-10 11-12 2-6-5-10-1 1-5 5t-5 2q-2-3 0-10t6-7q-4 0-5-9t-2-20 0-13l1-1q-2-6 3-19t12-11q-7-1 11-24 3-4 4-5 2-1 7-4t9-6 5-5q2-3 6-13t8-13q-2-3 5-11t6-13q-1 0-2-1t-1 0q2-4 9-8t8-7q1-2 1-6t2-6 4-1q2 11-13 34-8 14-9 17-2 2-4 8t-2 8q1 0 3 0t5-2 4-3 1-1q-1-4 1-10t7-10 10-11 6-7q4-4 8-11t0-8q5 0 11-5t10-11q3-5 4-15t3-13q1-4 5-8t7-5l9-5t7-3q3-2 10-6t12-7q6-2 9-2t8 1 8 2q8 1 16-8t12-12q20-10 30-6-1 0 1-4t4-9 5-8 3-5q3-3 10-8t10-8q4 2 4 5-1-5 4-11t10-6q8 2 8 18-17-9-27 10 0 0-2 3t-2 5-1 4 0 5 2 1q5 0 6 2t-1 7-2 8q-1 4-6 11t-7 8q-3-5-9-4t-9 5q0-1-1-3t-1-4q-7 0-8 0 1 2 1 10t2 13q1 2 3 6t5 9 2 7-3 5-9 1q-11 0-15-11-1-2-2-6t-2-6-5-4q-4-2-14-1t-13 3q-8 4-13 16t-5 20q0 6 1 15t2 14-3 14q2 1 5 5t5 6q2 1 3 1t2 0 3 1 1 3q0 1-2 2-2 1-2 1 4-1 16 1t15-1q9-6 12 1 0 1-1 6t0 7q3-15 16-5 2-1 9-3t9-2q2-1 4-3t3-3 3 0 5 4q5-8 7-13 6-23 10-25 4-2 6-1t3 5 0 8-1 7l-1 4v11l0 4q-8 2-10 7t0 10 9 10q0 1 4 2t9 4 7 4q12 11 8 20 4 0 6 5 0 0-2 2t-5 2-2 2q5 2 1 8 3 2 4 7t4 5q5-7 12-1 4 5 1 9 2 4 11 6t10 5q4-1 5 1t0 7 2 7q2 2 8 5t8 2l9 7q2 2 0 2 10-1 18 6 5 6-4 11 2 3-2 5t-8 3q2 1 7 1t5 1q9 5-4 9-9 2-24-7z m-90-490q114 21 195 106-1 2-7 2t-7 2q-10 4-13 5 1 4-1 7t-5 5-7 5-6 4q-1 1-4 3t-4 3-4 2-5 2-5-1l-2-1q-2 0-3-1t-3-2-2-1 0-2q-12 10-20 13-3 0-7 3t-5 4-6 0-6-4q-3-2-4-8t-1-7q-4 3 0 10t1 10q-1 3-6 2t-6-2-7-5-5-3-4-3-5-5q-2-2-4-6t-2-7q-1 3-7 4t-5 3q1-5 2-19t3-22q4-17-7-26-15-14-16-23-2-12 7-14 0-4-5-12t-4-12q0-3 2-9z" horiz-adv-x="857.1" />
<glyph glyph-name="search" unicode="&#xe801;" d="m335 246l25-25q-28-28-85-86t-73-74l-27 27q16 15 74 73t86 85z m245 551q136 0 234-97t97-234-97-234-234-96q-64 0-123 24l-255-257-184 185 256 255q-26 63-26 123 0 137 98 234t234 97z m0-551q91 0 155 64t64 156-64 155-155 64-156-64-64-155 64-156 156-64z" horiz-adv-x="928" />
<glyph glyph-name="award" unicode="&#xe802;" d="m256 357q-42 91-42 207h-143v-53q0-44 53-91t132-63z m601 154v53h-143q0-116-41-207 79 16 131 63t53 91z m72 71v-71q0-40-24-80t-62-73-97-54-120-25q-23-30-53-53-21-19-29-40t-8-50q0-30 17-51t54-21q42 0 75-25t32-64v-36q0-8-5-13t-13-5h-464q-8 0-13 5t-5 13v36q0 39 33 64t74 25q38 0 55 21t17 51q0 28-8 50t-30 40q-29 23-53 53-63 3-120 25t-96 54-63 73-23 80v71q0 22 16 38t38 16h160v53q0 37 27 63t63 27h321q37 0 63-27t26-63v-53h161q22 0 38-16t16-38z" horiz-adv-x="928.6" />
<glyph glyph-name="angle-left" unicode="&#xe803;" d="m350 546q0-7-6-12l-219-220 219-219q6-6 6-13t-6-13l-28-28q-5-5-12-5t-13 5l-260 260q-6 6-6 13t6 13l260 260q5 6 13 6t12-6l28-28q6-5 6-13z" horiz-adv-x="357.1" />
<glyph glyph-name="angle-right" unicode="&#xe804;" d="m332 314q0-7-6-13l-260-260q-5-5-12-5t-13 5l-28 28q-6 6-6 13t6 13l219 219-219 220q-6 5-6 12t6 13l28 28q5 6 13 6t12-6l260-260q6-5 6-13z" horiz-adv-x="357.1" />
<glyph glyph-name="angle-up" unicode="&#xe805;" d="m600 189q0-7-6-13l-28-27q-5-6-12-6t-13 6l-220 219-219-219q-5-6-13-6t-13 6l-27 27q-6 6-6 13t6 13l260 260q5 6 12 6t13-6l260-260q6-5 6-13z" horiz-adv-x="642.9" />
<glyph glyph-name="angle-down" unicode="&#xe806;" d="m600 439q0-7-6-13l-260-260q-5-5-13-5t-12 5l-260 260q-6 6-6 13t6 13l27 28q6 6 13 6t13-6l219-219 220 219q5 6 13 6t12-6l28-28q6-5 6-13z" horiz-adv-x="642.9" />
<glyph glyph-name="down-circle" unicode="&#xe807;" d="m911 350q0-184-131-315t-315-132-316 132-131 315 131 316 316 131 315-131 131-316z m-670-1l223-222 222 222-165 0 0 225-112 0 0-225-168 0z" horiz-adv-x="928" />
<glyph glyph-name="left-circle" unicode="&#xe808;" d="m465-97q-185 0-316 132t-131 315 131 316 316 131 315-131 131-316-131-315-315-132z m-2 671l-222-223 222-222 0 166 225 0 0 112-225 0 0 167z" horiz-adv-x="928" />
<glyph glyph-name="right-circle" unicode="&#xe809;" d="m465 797q184 0 315-131t131-316-131-315-315-132-316 132-131 315 131 316 316 131z m1-670l222 224-222 222 0-166-225 0 0-112 225 0 0-168z" horiz-adv-x="928" />
<glyph glyph-name="up-circle" unicode="&#xe80a;" d="m18 350q0 185 130 316t316 131q185 0 316-131t131-316-131-315-315-132-316 132-131 315z m670 2l-224 222-222-222 167 0 0-225 112 0 0 225 167 0z" horiz-adv-x="928" />
<glyph glyph-name="rss-alt" unicode="&#xe80b;" d="m18 15q0 112 112 112t111-112-111-112-112 112z m336 56q0 68-50 118t-118 50l0 112q116 0 197-82 83-85 83-198l-112 0z m-169 391l0 112q144 0 258-71t177-180q68-116 68-252l-112 0q0 112-54 201t-140 139q-89 51-197 51z m0 223l0 112q153 0 287-60t227-153 153-226 59-287l-112 0q0 130-50 242t-130 192-192 130-242 50z" horiz-adv-x="928" />
<glyph glyph-name="chat-inv" unicode="&#xe80c;" d="m688 462q0-92-65-158t-159-65q0 46-33 79t-78 33l-112 0q-93 0-158 55t-65 168q0 114 65 168t158 55l223 0q92 0 158-58t66-165l0-112z m-335 0z m0 0z m390-6q74-14 121-68t47-149q0-113-65-168t-158-55l-112 0q-46 0-79-34t-33-79q-92 0-157 66t-66 158l0 112q0 29 6 56l106 0q24 0 40-17t16-39l0-55 55 0q113 0 195 79t84 193z" horiz-adv-x="928" />
<glyph glyph-name="food" unicode="&#xe80d;" d="m357 814v-357q0-34-20-62t-51-39v-435q0-29-21-50t-51-21h-71q-29 0-50 21t-22 50v435q-31 11-51 39t-20 62v357q0 15 11 25t25 11 25-11 10-25v-232q0-14 11-25t25-11 25 11 11 25v232q0 15 10 25t26 11 25-11 10-25v-232q0-14 11-25t25-11 25 11 11 25v232q0 15 10 25t25 11 26-11 10-25z m429 0v-893q0-29-21-50t-51-21h-71q-29 0-50 21t-22 50v286h-125q-7 0-12 5t-5 13v446q0 74 52 127t126 52h143q15 0 25-11t11-25z" horiz-adv-x="785.7" />
<glyph glyph-name="sun-inv" unicode="&#xe80e;" d="m465 574q92 0 158-66t65-158-65-158-158-65-158 65-66 158 66 158 158 66z m56 168q0-24-17-41t-39-16-39 16-17 41 17 39 38 16q24 0 41-16t16-39z m-391-112q0 55 56 55 55 0 55-55 0-56-55-56-56 0-56 56z m-56-223q23 0 40-16t16-40-16-40-40-16-40 16-16 40q0 24 16 40t40 16z m56-335q0 55 56 55 55 0 55-55 0-56-55-56-56 0-56 56z m279-112q0 22 17 39t38 17q24 0 41-17t16-39-17-40-39-17-39 17-17 40z m296 72q-16 16-16 39t16 39 39 17 40-17 15-39-15-39-40-15-39 15z m151 263q-24 0-40 16t-17 40q0 24 17 40t40 16 39-16 16-40-16-40-39-16z m-72 295q-16-16-40-16t-39 16-16 40 16 40 39 17 40-17 15-40-15-40z" horiz-adv-x="928" />
<glyph glyph-name="share" unicode="&#xe80f;" d="m799 127q46 0 79-33t33-79-33-79-78-33-79 33-33 80q0 18 8 39l-169 122q-49-50-118-50t-118 49-50 119q0 9 3 26l-134 44q-16-14-36-14-24 0-40 16t-16 40 16 39 40 16q20 0 34-13t19-31l135-45q21 41 61 65t86 24q52 0 96-31l199 199q-16 30-16 55 0 46 33 79t79 33 78-33 33-79-33-78-79-33q-26 0-55 17l-199-200q31-44 31-96 0-37-17-73l169-121q33 26 71 26z" horiz-adv-x="928" />
<glyph glyph-name="lock-open-alt" unicode="&#xe810;" d="m589 421q23 0 38-15t16-38v-322q0-22-16-37t-38-16h-535q-23 0-38 16t-16 37v322q0 22 16 38t38 15h17v179q0 103 74 177t176 73 177-73 73-177q0-15-10-25t-25-11h-36q-14 0-25 11t-11 25q0 59-42 101t-101 42-101-42-41-101v-179h410z" horiz-adv-x="642.9" />
<glyph glyph-name="cursor" unicode="&#xe811;" d="m911 16l-112-113-390 392-168-168-223 670 670-223-167-167z" horiz-adv-x="928" />
<glyph glyph-name="camera" unicode="&#xe812;" d="m464 239q0 112 112 112t112-112-112-112-112 112z m-446 223q0 46 33 79t79 33l223 0 96 185q13 38 53 38l153 0q40 0 53-37l91-186q46 0 79-33t33-79l0-559-893 0 0 559z m112-55q0-23 17-40t39-16 39 16 16 40-16 39-39 16-39-16-17-39z m223-168q0-92 66-158t157-65 157 65 66 158-66 157-157 66-157-66-66-157z" horiz-adv-x="928" />
<glyph glyph-name="mobile-1" unicode="&#xe813;" d="m464 797q93 0 159-66t65-157l0-447q0-92-65-158t-159-66l-223 0q-92 0-157 66t-66 158l0 447q0 92 66 157t157 66l223 0z m-111-840q24 0 41 17t16 42-16 40-41 17-41-17-17-40 17-42 41-17z m223 170l0 447q0 45-33 78t-79 33l-223 0q-45 0-78-33t-33-78l0-447 446 0z" horiz-adv-x="705" />
<glyph glyph-name="eye" unicode="&#xe814;" d="m465 685q68 0 140-34t124-82 95-97 64-83l23-34q-9-14-24-37t-63-81-97-103-121-82-141-36-140 34-124 85-96 100-64 86l-23 34q8 14 23 36t63 79 98 101 122 79 141 35z m0-558q92 0 158 65t65 158-65 158-158 66-158-66-66-158 66-158 158-65z m-112 223q0 112 112 112t111-112-111-111-112 111z" horiz-adv-x="928" />
<glyph glyph-name="video" unicode="&#xe815;" d="m799 574l112 111-109 112 109 0 0-894-893 0 0 894 112 0 112-112-114-111 113 0 114 113-111 110 157 0 113-112-114-111 132 0 114 113-112 110 156 0 109-112-110-111 110 0z m0-557l0 112-669 0 0-112 669 0z m0 222l0 112-669 0 0-112 669 0z" horiz-adv-x="928" />
<glyph glyph-name="facebook" unicode="&#xe816;" d="m285 540h144l-17-159h-127v-460h-190v460h-95v159h95v95q0 102 48 154t158 52h126v-158h-79q-22 0-35-4t-19-13-7-19-2-28v-79z" horiz-adv-x="428.6" />
<glyph glyph-name="thumbs-up" unicode="&#xe817;" d="m143 100q0 15-11 25t-25 11-25-11-11-25 11-25 25-11 25 11 11 25z m643 321q0 29-22 50t-50 22h-196q0 32 27 89t26 89q0 55-17 81t-72 27q-14-15-21-48t-17-70-33-61q-13-13-43-51-2-3-13-17t-18-22-19-24-22-25-22-19-22-16-20-5h-18v-357h18q7 0 18-1t18-4 21-6 20-7 20-7 16-5q118-41 191-41h67q107 0 107 93 0 15-2 31 16 9 26 30t10 41-10 38q29 28 29 67 0 13-5 31t-14 26q18 1 30 26t12 45z m71 1q0-50-27-91 5-18 5-38 0-43-21-81 1-12 1-24 0-56-33-99 0-78-48-123t-126-45h-72q-54 0-106 13t-121 36q-65 23-77 23h-161q-29 0-50 21t-21 50v357q0 30 21 51t50 21h153q20 13 77 86 32 42 60 72 13 14 19 47t17 71 35 60q22 21 50 21 47 0 84-18t57-57 20-104q0-51-27-107h98q58 0 101-42t42-100z" horiz-adv-x="857.1" />
</font>
</defs>
</svg>